C:\Users\Morgan\workspace\API_SERVER_JAVA\src\main\java\com\mkyong\rest\Suivi.java
C:\Users\Morgan\workspace\API_SERVER_JAVA\src\main\java\com\mkyong\rest\FinanceDAO.java
C:\Users\Morgan\workspace\API_SERVER_JAVA\src\main\java\com\mkyong\rest\User.java
C:\Users\Morgan\workspace\API_SERVER_JAVA\src\main\java\com\mkyong\rest\UserDAO.java
C:\Users\Morgan\workspace\API_SERVER_JAVA\src\main\java\com\mkyong\rest\Services.java
C:\Users\Morgan\workspace\API_SERVER_JAVA\src\main\java\com\mkyong\rest\Finance.java
C:\Users\Morgan\workspace\API_SERVER_JAVA\src\main\java\com\mkyong\rest\SuiviDao.java
C:\Users\Morgan\workspace\API_SERVER_JAVA\src\main\java\com\mkyong\rest\AbstractDAO.java
